데이터 과학 - 데이터 다루기
…
summarise (변수를 값으로 줄이기) : 변수를 값(스칼라)으로 요약한다.

dplyr 동사 개념

2 팔머 펭귄

2.1 데이터셋

library(dplyr)
library(palmerpenguins)

penguins

penguins 
#> # A tibble: 344 × 8
#>    species island    bill_length_mm bill_depth_mm flipper_…¹ body_…² sex    year
#>    <fct>   <fct>              <dbl>         <dbl>      <int>   <int> <fct> <int>
#>  1 Adelie  Torgersen           39.1          18.7        181    3750 male   2007
#>  2 Adelie  Torgersen           39.5          17.4        186    3800 fema…  2007
#>  3 Adelie  Torgersen           40.3          18          195    3250 fema…  2007
#>  4 Adelie  Torgersen           NA            NA           NA      NA <NA>   2007
#>  5 Adelie  Torgersen           36.7          19.3        193    3450 fema…  2007
#>  6 Adelie  Torgersen           39.3          20.6        190    3650 male   2007
#>  7 Adelie  Torgersen           38.9          17.8        181    3625 fema…  2007
#>  8 Adelie  Torgersen           39.2          19.6        195    4675 male   2007
#>  9 Adelie  Torgersen           34.1          18.1        193    3475 <NA>   2007
#> 10 Adelie  Torgersen           42            20.2        190    4250 <NA>   2007
#> # … with 334 more rows, and abbreviated variable names ¹​flipper_length_mm,
#> #   ²​body_mass_g

2.2 오름/내림 차순 정렬

penguins %>% 
  arrange(bill_length_mm)

#> # A tibble: 344 × 8
#>    species island    bill_length_mm bill_depth_mm flipper_…¹ body_…² sex    year
#>    <fct>   <fct>              <dbl>         <dbl>      <int>   <int> <fct> <int>
#>  1 Adelie  Dream               32.1          15.5        188    3050 fema…  2009
#>  2 Adelie  Dream               33.1          16.1        178    2900 fema…  2008
#>  3 Adelie  Torgersen           33.5          19          190    3600 fema…  2008
#>  4 Adelie  Dream               34            17.1        185    3400 fema…  2008
#>  5 Adelie  Torgersen           34.1          18.1        193    3475 <NA>   2007
#>  6 Adelie  Torgersen           34.4          18.4        184    3325 fema…  2007
#>  7 Adelie  Biscoe              34.5          18.1        187    2900 fema…  2008
#>  8 Adelie  Torgersen           34.6          21.1        198    4400 male   2007
#>  9 Adelie  Torgersen           34.6          17.2        189    3200 fema…  2008
#> 10 Adelie  Biscoe              35            17.9        190    3450 fema…  2008
#> # … with 334 more rows, and abbreviated variable names ¹​flipper_length_mm,
#> #   ²​body_mass_g

2.3 변수 선택

penguins %>% 
  select(species, bill_length_mm, sex)

#> # A tibble: 344 × 3
#>    species bill_length_mm sex   
#>    <fct>            <dbl> <fct> 
#>  1 Adelie            39.1 male  
#>  2 Adelie            39.5 female
#>  3 Adelie            40.3 female
#>  4 Adelie            NA   <NA>  
#>  5 Adelie            36.7 female
#>  6 Adelie            39.3 male  
#>  7 Adelie            38.9 female
#>  8 Adelie            39.2 male  
#>  9 Adelie            34.1 <NA>  
#> 10 Adelie            42   <NA>  
#> # … with 334 more rows

2.4 관측점 필터링

penguins %>% 
  filter(island == "Dream")

#> # A tibble: 124 × 8
#>    species island bill_length_mm bill_depth_mm flipper_len…¹ body_…² sex    year
#>    <fct>   <fct>           <dbl>         <dbl>         <int>   <int> <fct> <int>
#>  1 Adelie  Dream            39.5          16.7           178    3250 fema…  2007
#>  2 Adelie  Dream            37.2          18.1           178    3900 male   2007
#>  3 Adelie  Dream            39.5          17.8           188    3300 fema…  2007
#>  4 Adelie  Dream            40.9          18.9           184    3900 male   2007
#>  5 Adelie  Dream            36.4          17             195    3325 fema…  2007
#>  6 Adelie  Dream            39.2          21.1           196    4150 male   2007
#>  7 Adelie  Dream            38.8          20             190    3950 male   2007
#>  8 Adelie  Dream            42.2          18.5           180    3550 fema…  2007
#>  9 Adelie  Dream            37.6          19.3           181    3300 fema…  2007
#> 10 Adelie  Dream            39.8          19.1           184    4650 male   2007
#> # … with 114 more rows, and abbreviated variable names ¹​flipper_length_mm,
#> #   ²​body_mass_g

2.5 변수 생성

체질량지수(BMI) 보고서

\[BMI = \frac{체중(kg)}{키(미터)^2}\]

\[Bill(부리) = \frac{\text{부리길이}}{부리깊이} \times 2 \]

penguins %>% 
  select(species, island, bill_length_mm,  bill_depth_mm) %>% 
  mutate(bill =  bill_length_mm / bill_depth_mm * 2)

#> # A tibble: 344 × 5
#>    species island    bill_length_mm bill_depth_mm  bill
#>    <fct>   <fct>              <dbl>         <dbl> <dbl>
#>  1 Adelie  Torgersen           39.1          18.7  4.18
#>  2 Adelie  Torgersen           39.5          17.4  4.54
#>  3 Adelie  Torgersen           40.3          18    4.48
#>  4 Adelie  Torgersen           NA            NA   NA   
#>  5 Adelie  Torgersen           36.7          19.3  3.80
#>  6 Adelie  Torgersen           39.3          20.6  3.82
#>  7 Adelie  Torgersen           38.9          17.8  4.37
#>  8 Adelie  Torgersen           39.2          19.6  4   
#>  9 Adelie  Torgersen           34.1          18.1  3.77
#> 10 Adelie  Torgersen           42            20.2  4.16
#> # … with 334 more rows
…
