데이터 과학 - 펭균 ML 보고서
…
클라우드 저장소: Microsoft Azure Blob Storage, Google Cloud Storage, DigitalOcean Spaces, Backblaze B2, Wasabi Hot Cloud Storage, Alibaba Cloud OSS, IBM Cloud Object Storage, Oracle Cloud Infrastructure Object Storage, OpenStack Object Storage (Swift), Rackspace Cloud Files

2.1.1 데이터 패키지

R - palmerpenguins
Python - palmerpenguins

코드

library(palmerpenguins)

penguins <- palmerpenguins::penguins

penguins
#> # A tibble: 344 × 8
#>    species island    bill_length_mm bill_depth_mm flipper_…¹ body_…² sex    year
#>    <fct>   <fct>              <dbl>         <dbl>      <int>   <int> <fct> <int>
#>  1 Adelie  Torgersen           39.1          18.7        181    3750 male   2007
#>  2 Adelie  Torgersen           39.5          17.4        186    3800 fema…  2007
#>  3 Adelie  Torgersen           40.3          18          195    3250 fema…  2007
#>  4 Adelie  Torgersen           NA            NA           NA      NA <NA>   2007
#>  5 Adelie  Torgersen           36.7          19.3        193    3450 fema…  2007
#>  6 Adelie  Torgersen           39.3          20.6        190    3650 male   2007
#>  7 Adelie  Torgersen           38.9          17.8        181    3625 fema…  2007
#>  8 Adelie  Torgersen           39.2          19.6        195    4675 male   2007
#>  9 Adelie  Torgersen           34.1          18.1        193    3475 <NA>   2007
#> 10 Adelie  Torgersen           42            20.2        190    4250 <NA>   2007
#> # … with 334 more rows, and abbreviated variable names ¹​flipper_length_mm,
#> #   ²​body_mass_g
…
2.1.2 csv 데이터

R - csv
Python - csv

코드

library(tidyverse)

penguins_csv <- read_csv('data/penguins.csv')

penguins_csv
#> # A tibble: 344 × 9
#>    rowid species island    bill_length_mm bill_dep…¹ flipp…² body_…³ sex    year
#>    <dbl> <chr>   <chr>              <dbl>      <dbl>   <dbl>   <dbl> <chr> <dbl>
#>  1     1 Adelie  Torgersen           39.1       18.7     181    3750 male   2007
#>  2     2 Adelie  Torgersen           39.5       17.4     186    3800 fema…  2007
#>  3     3 Adelie  Torgersen           40.3       18       195    3250 fema…  2007
#>  4     4 Adelie  Torgersen           NA         NA        NA      NA <NA>   2007
#>  5     5 Adelie  Torgersen           36.7       19.3     193    3450 fema…  2007
#>  6     6 Adelie  Torgersen           39.3       20.6     190    3650 male   2007
#>  7     7 Adelie  Torgersen           38.9       17.8     181    3625 fema…  2007
#>  8     8 Adelie  Torgersen           39.2       19.6     195    4675 male   2007
#>  9     9 Adelie  Torgersen           34.1       18.1     193    3475 <NA>   2007
#> 10    10 Adelie  Torgersen           42         20.2     190    4250 <NA>   2007
#> # … with 334 more rows, and abbreviated variable names ¹​bill_depth_mm,
#> #   ²​flipper_length_mm, ³​body_mass_g
…
Onedrive
AWS S3
Google Cloud Storage

코드

library(pins)
library(Microsoft365R)

od <- Microsoft365R::get_personal_onedrive()
board <- board_ms365(od, "krvote_board")
# board %>% pin_write(penguins)

board %>% pin_read("penguins")
#> # A tibble: 344 × 8
#>    species island    bill_length_mm bill_depth_mm flipper_…¹ body_…² sex    year
#>    <fct>   <fct>              <dbl>         <dbl>      <int>   <int> <fct> <int>
#>  1 Adelie  Torgersen           39.1          18.7        181    3750 male   2007
#>  2 Adelie  Torgersen           39.5          17.4        186    3800 fema…  2007
#>  3 Adelie  Torgersen           40.3          18          195    3250 fema…  2007
#>  4 Adelie  Torgersen           NA            NA           NA      NA <NA>   2007
#>  5 Adelie  Torgersen           36.7          19.3        193    3450 fema…  2007
#>  6 Adelie  Torgersen           39.3          20.6        190    3650 male   2007
#>  7 Adelie  Torgersen           38.9          17.8        181    3625 fema…  2007
#>  8 Adelie  Torgersen           39.2          19.6        195    4675 male   2007
#>  9 Adelie  Torgersen           34.1          18.1        193    3475 <NA>   2007
#> 10 Adelie  Torgersen           42            20.2        190    4250 <NA>   2007
#> # … with 334 more rows, and abbreviated variable names ¹​flipper_length_mm,
#> #   ²​body_mass_g
…
코드

miss_case_summary(penguins_raw)
#> # A tibble: 344 × 3
#>     case n_miss pct_miss
#>    <int>  <int>    <dbl>
#>  1     4      5     62.5
#>  2   272      5     62.5
#>  3     9      1     12.5
#>  4    10      1     12.5
#>  5    11      1     12.5
#>  6    12      1     12.5
#>  7    48      1     12.5
#>  8   179      1     12.5
#>  9   219      1     12.5
#> 10   257      1     12.5
#> # … with 334 more rows
…
코드

library(tidymodels)

set.seed(123)
penguin_split <- initial_split(penguins_tbl, strata = sex, prop = 0.7)
penguin_train <- training(penguin_split)
penguin_test <- testing(penguin_split)

set.seed(123)
penguin_boot <- bootstraps(penguin_train)
penguin_boot
#> # Bootstrap sampling 
#> # A tibble: 25 × 2
#>    splits           id         
#>    <list>           <chr>      
#>  1 <split [238/87]> Bootstrap01
#>  2 <split [238/85]> Bootstrap02
#>  3 <split [238/87]> Bootstrap03
#>  4 <split [238/86]> Bootstrap04
#>  5 <split [238/79]> Bootstrap05
#>  6 <split [238/83]> Bootstrap06
#>  7 <split [238/88]> Bootstrap07
#>  8 <split [238/83]> Bootstrap08
#>  9 <split [238/91]> Bootstrap09
#> 10 <split [238/87]> Bootstrap10
#> # … with 15 more rows
…
코드

tictoc::tic()

rf_rs <- penguin_wf %>%
  fit_resamples(
    resamples = penguin_boot,
    control = control_resamples(save_pred = TRUE)
  )

rf_rs
#> # Resampling results
#> # Bootstrap sampling 
#> # A tibble: 25 × 5
#>    splits           id          .metrics         .notes           .predictions
#>    <list>           <chr>       <list>           <list>           <list>      
#>  1 <split [238/87]> Bootstrap01 <tibble [2 × 4]> <tibble [0 × 3]> <tibble>    
#>  2 <split [238/85]> Bootstrap02 <tibble [2 × 4]> <tibble [0 × 3]> <tibble>    
#>  3 <split [238/87]> Bootstrap03 <tibble [2 × 4]> <tibble [0 × 3]> <tibble>    
#>  4 <split [238/86]> Bootstrap04 <tibble [2 × 4]> <tibble [0 × 3]> <tibble>    
#>  5 <split [238/79]> Bootstrap05 <tibble [2 × 4]> <tibble [0 × 3]> <tibble>    
#>  6 <split [238/83]> Bootstrap06 <tibble [2 × 4]> <tibble [0 × 3]> <tibble>    
#>  7 <split [238/88]> Bootstrap07 <tibble [2 × 4]> <tibble [0 × 3]> <tibble>    
#>  8 <split [238/83]> Bootstrap08 <tibble [2 × 4]> <tibble [0 × 3]> <tibble>    
#>  9 <split [238/91]> Bootstrap09 <tibble [2 × 4]> <tibble [0 × 3]> <tibble>    
#> 10 <split [238/87]> Bootstrap10 <tibble [2 × 4]> <tibble [0 × 3]> <tibble>    
#> # … with 15 more rows
…
